…
## Example

This is a basic example which shows you how to solve a common problem:

``` r
library(ussie)

spain_df <- uss_make_matches(engsoccerdata::spain, "Spain")

print(spain_df)
#> # A tibble: 23,915 × 8
#>    tier  season date       home               visitor    goals…¹ goals…² country
#>    <fct>  <int> <date>     <chr>              <chr>        <int>   <int> <chr>  
#>  1 1       1928 1929-02-10 Arenas de Getxo    Atletico …       2       3 Spain  
#>  2 1       1928 1929-02-10 Espanyol Barcelona Real Union       3       2 Spain  
#>  3 1       1928 1929-02-10 Real Madrid        CE Europa        5       0 Spain  
#>  4 1       1928 1929-02-10 Real Sociedad      Athletic …       1       1 Spain  
#>  5 1       1928 1929-02-12 Racing Santander   FC Barcel…       0       2 Spain  
#>  6 1       1928 1929-02-17 FC Barcelona       Real Madr…       1       2 Spain  
#>  7 1       1928 1929-02-17 Athletic Bilbao    Espanyol …       9       0 Spain  
#>  8 1       1928 1929-02-17 Atletico Madrid    Real Soci…       0       3 Spain  
#>  9 1       1928 1929-02-17 Real Union         Racing Sa…       3       1 Spain  
#> 10 1       1928 1929-02-17 CE Europa          Arenas de…       5       2 Spain  
#> # … with 23,905 more rows, and abbreviated variable names ¹​goals_home,
#> #   ²​goals_visitor
#> # ℹ Use `print(n = ...)` to see more rows
```
…
